%YAML 1.1
%TAG !u! tag:unity3d.com,2011:
--- !u!114 &11400000
MonoBehaviour:
  m_ObjectHideFlags: 0
  m_CorrespondingSourceObject: {fileID: 0}
  m_PrefabInstance: {fileID: 0}
  m_PrefabAsset: {fileID: 0}
  m_GameObject: {fileID: 0}
  m_Enabled: 1
  m_EditorHideFlags: 0
  m_Script: {fileID: 11500000, guid: 54d21f6ece3b46479f0c328f8c6007e0, type: 3}
  m_Name: Title_ColorGradient
  m_EditorClassIdentifier: 
  colorMode: 3
  topLeft: {r: 0.8679245, g: 0.6766472, b: 0.20879315, a: 1}
  topRight: {r: 0.8396226, g: 0.48713955, b: 0.82263106, a: 1}
  bottomLeft: {r: 0.8773585, g: 0.21106264, b: 0.21106264, a: 1}
  bottomRight: {r: 0.8207547, g: 0.08904416, b: 0.36959592, a: 1}
