%YAML 1.1
%TAG !u! tag:unity3d.com,2011:
--- !u!74 &7400000
AnimationClip:
  m_ObjectHideFlags: 0
  m_CorrespondingSourceObject: {fileID: 0}
  m_PrefabInstance: {fileID: 0}
  m_PrefabAsset: {fileID: 0}
  m_Name: Explosion
  serializedVersion: 6
  m_Legacy: 0
  m_Compressed: 0
  m_UseHighQualityCurve: 1
  m_RotationCurves: []
  m_CompressedRotationCurves: []
  m_EulerCurves: []
  m_PositionCurves: []
  m_ScaleCurves: []
  m_FloatCurves: []
  m_PPtrCurves:
  - curve:
    - time: 0
      value: {fileID: 21300000, guid: f914f6924419685489f224113601d2b4, type: 3}
    - time: 0.016666668
      value: {fileID: 21300000, guid: c84c740739cbb054db89bed62da9e066, type: 3}
    - time: 0.033333335
      value: {fileID: 21300000, guid: 15790f59fae928e4d80625a5453c5175, type: 3}
    - time: 0.05
      value: {fileID: 21300000, guid: 29b11554e0a72874ea87dc79de644fd7, type: 3}
    - time: 0.06666667
      value: {fileID: 21300000, guid: 37d78642b64966b408eae1b322e1c7a9, type: 3}
    - time: 0.083333336
      value: {fileID: 21300000, guid: 9a9b1b136dc3d8e41a22c0b8caf508e7, type: 3}
    - time: 0.1
      value: {fileID: 21300000, guid: fa51d940fda0a3c428215a50635a429b, type: 3}
    - time: 0.11666667
      value: {fileID: 21300000, guid: 1e82de49696521e499b0565a80cb7d22, type: 3}
    - time: 0.13333334
      value: {fileID: 21300000, guid: b31a8234355182a4f9c40a3901f86f18, type: 3}
    - time: 0.15
      value: {fileID: 21300000, guid: 1518c8636c56ab64085fb23329e3fcf6, type: 3}
    - time: 0.16666667
      value: {fileID: 21300000, guid: f8c9bee2529fdb54283bb6b8318f01a4, type: 3}
    - time: 0.18333334
      value: {fileID: 21300000, guid: 20a1aef4e7eb6a24d89423a6bf4c0a1a, type: 3}
    - time: 0.2
      value: {fileID: 21300000, guid: 435abfb784ff9d24fbbc8129c7654a6e, type: 3}
    - time: 0.21666667
      value: {fileID: 21300000, guid: 405666834a38d55489c9f9cddfe9363e, type: 3}
    - time: 0.23333333
      value: {fileID: 21300000, guid: 7c1799fcc2b60e447ac2e5e2edb991cb, type: 3}
    - time: 0.25
      value: {fileID: 21300000, guid: 17a489f128572bb4584baa7997a676a6, type: 3}
    - time: 0.26666668
      value: {fileID: 21300000, guid: 6f44dab61439cd8489ca2a6c1bcbc934, type: 3}
    - time: 0.28333333
      value: {fileID: 21300000, guid: 3a298413b2e330546a7eefd032530dcc, type: 3}
    - time: 0.3
      value: {fileID: 21300000, guid: ba480a1571ee36545842dd59471c8a1a, type: 3}
    - time: 0.31666666
      value: {fileID: 21300000, guid: 5d86cfae304b68543af21ccd99dd3a5b, type: 3}
    - time: 0.33333334
      value: {fileID: 21300000, guid: c149fbd7068d302499c967f2e96a0481, type: 3}
    - time: 0.35
      value: {fileID: 21300000, guid: cc1f338702e3d674aa28d17705628308, type: 3}
    - time: 0.36666667
      value: {fileID: 21300000, guid: 62dfef305b70cbc49a0a7b60df588dd3, type: 3}
    - time: 0.38333333
      value: {fileID: 21300000, guid: 216ebf898c3284446b835796da531abf, type: 3}
    attribute: m_Sprite
    path: 
    classID: 212
    script: {fileID: 0}
  m_SampleRate: 60
  m_WrapMode: 0
  m_Bounds:
    m_Center: {x: 0, y: 0, z: 0}
    m_Extent: {x: 0, y: 0, z: 0}
  m_ClipBindingConstant:
    genericBindings:
    - serializedVersion: 2
      path: 0
      attribute: 0
      script: {fileID: 0}
      typeID: 212
      customType: 23
      isPPtrCurve: 1
    pptrCurveMapping:
    - {fileID: 21300000, guid: f914f6924419685489f224113601d2b4, type: 3}
    - {fileID: 21300000, guid: c84c740739cbb054db89bed62da9e066, type: 3}
    - {fileID: 21300000, guid: 15790f59fae928e4d80625a5453c5175, type: 3}
    - {fileID: 21300000, guid: 29b11554e0a72874ea87dc79de644fd7, type: 3}
    - {fileID: 21300000, guid: 37d78642b64966b408eae1b322e1c7a9, type: 3}
    - {fileID: 21300000, guid: 9a9b1b136dc3d8e41a22c0b8caf508e7, type: 3}
    - {fileID: 21300000, guid: fa51d940fda0a3c428215a50635a429b, type: 3}
    - {fileID: 21300000, guid: 1e82de49696521e499b0565a80cb7d22, type: 3}
    - {fileID: 21300000, guid: b31a8234355182a4f9c40a3901f86f18, type: 3}
    - {fileID: 21300000, guid: 1518c8636c56ab64085fb23329e3fcf6, type: 3}
    - {fileID: 21300000, guid: f8c9bee2529fdb54283bb6b8318f01a4, type: 3}
    - {fileID: 21300000, guid: 20a1aef4e7eb6a24d89423a6bf4c0a1a, type: 3}
    - {fileID: 21300000, guid: 435abfb784ff9d24fbbc8129c7654a6e, type: 3}
    - {fileID: 21300000, guid: 405666834a38d55489c9f9cddfe9363e, type: 3}
    - {fileID: 21300000, guid: 7c1799fcc2b60e447ac2e5e2edb991cb, type: 3}
    - {fileID: 21300000, guid: 17a489f128572bb4584baa7997a676a6, type: 3}
    - {fileID: 21300000, guid: 6f44dab61439cd8489ca2a6c1bcbc934, type: 3}
    - {fileID: 21300000, guid: 3a298413b2e330546a7eefd032530dcc, type: 3}
    - {fileID: 21300000, guid: ba480a1571ee36545842dd59471c8a1a, type: 3}
    - {fileID: 21300000, guid: 5d86cfae304b68543af21ccd99dd3a5b, type: 3}
    - {fileID: 21300000, guid: c149fbd7068d302499c967f2e96a0481, type: 3}
    - {fileID: 21300000, guid: cc1f338702e3d674aa28d17705628308, type: 3}
    - {fileID: 21300000, guid: 62dfef305b70cbc49a0a7b60df588dd3, type: 3}
    - {fileID: 21300000, guid: 216ebf898c3284446b835796da531abf, type: 3}
  m_AnimationClipSettings:
    serializedVersion: 2
    m_AdditiveReferencePoseClip: {fileID: 0}
    m_AdditiveReferencePoseTime: 0
    m_StartTime: 0
    m_StopTime: 0.4
    m_OrientationOffsetY: 0
    m_Level: 0
    m_CycleOffset: 0
    m_HasAdditiveReferencePose: 0
    m_LoopTime: 0
    m_LoopBlend: 0
    m_LoopBlendOrientation: 0
    m_LoopBlendPositionY: 0
    m_LoopBlendPositionXZ: 0
    m_KeepOriginalOrientation: 0
    m_KeepOriginalPositionY: 1
    m_KeepOriginalPositionXZ: 0
    m_HeightFromFeet: 0
    m_Mirror: 0
  m_EditorCurves: []
  m_EulerEditorCurves: []
  m_HasGenericRootTransform: 0
  m_HasMotionFloatCurves: 0
  m_Events: []
