%YAML 1.1
%TAG !u! tag:unity3d.com,2011:
--- !u!1 &1735851789044049597
GameObject:
  m_ObjectHideFlags: 0
  m_CorrespondingSourceObject: {fileID: 0}
  m_PrefabInstance: {fileID: 0}
  m_PrefabAsset: {fileID: 0}
  serializedVersion: 6
  m_Component:
  - component: {fileID: 4886052026251548091}
  - component: {fileID: 2095318520778988422}
  m_Layer: 31
  m_Name: LavaPalette
  m_TagString: Untagged
  m_Icon: {fileID: 0}
  m_NavMeshLayer: 0
  m_StaticEditorFlags: 0
  m_IsActive: 1
--- !u!4 &4886052026251548091
Transform:
  m_ObjectHideFlags: 0
  m_CorrespondingSourceObject: {fileID: 0}
  m_PrefabInstance: {fileID: 0}
  m_PrefabAsset: {fileID: 0}
  m_GameObject: {fileID: 1735851789044049597}
  m_LocalRotation: {x: 0, y: 0, z: 0, w: 1}
  m_LocalPosition: {x: 0, y: 0, z: 0}
  m_LocalScale: {x: 1, y: 1, z: 1}
  m_Children:
  - {fileID: 847909161973240374}
  m_Father: {fileID: 0}
  m_RootOrder: 0
  m_LocalEulerAnglesHint: {x: 0, y: 0, z: 0}
--- !u!156049354 &2095318520778988422
Grid:
  m_ObjectHideFlags: 0
  m_CorrespondingSourceObject: {fileID: 0}
  m_PrefabInstance: {fileID: 0}
  m_PrefabAsset: {fileID: 0}
  m_GameObject: {fileID: 1735851789044049597}
  m_Enabled: 1
  m_CellSize: {x: 1, y: 1, z: 0}
  m_CellGap: {x: 0, y: 0, z: 0}
  m_CellLayout: 0
  m_CellSwizzle: 0
--- !u!1 &7845256722005709697
GameObject:
  m_ObjectHideFlags: 0
  m_CorrespondingSourceObject: {fileID: 0}
  m_PrefabInstance: {fileID: 0}
  m_PrefabAsset: {fileID: 0}
  serializedVersion: 6
  m_Component:
  - component: {fileID: 847909161973240374}
  - component: {fileID: 7125006800910562665}
  - component: {fileID: 6264367592158224043}
  m_Layer: 31
  m_Name: Layer1
  m_TagString: Untagged
  m_Icon: {fileID: 0}
  m_NavMeshLayer: 0
  m_StaticEditorFlags: 0
  m_IsActive: 1
--- !u!4 &847909161973240374
Transform:
  m_ObjectHideFlags: 0
  m_CorrespondingSourceObject: {fileID: 0}
  m_PrefabInstance: {fileID: 0}
  m_PrefabAsset: {fileID: 0}
  m_GameObject: {fileID: 7845256722005709697}
  m_LocalRotation: {x: -0, y: -0, z: -0, w: 1}
  m_LocalPosition: {x: 0, y: 0, z: 0}
  m_LocalScale: {x: 1, y: 1, z: 1}
  m_Children: []
  m_Father: {fileID: 4886052026251548091}
  m_RootOrder: 0
  m_LocalEulerAnglesHint: {x: 0, y: 0, z: 0}
--- !u!1839735485 &7125006800910562665
Tilemap:
  m_ObjectHideFlags: 0
  m_CorrespondingSourceObject: {fileID: 0}
  m_PrefabInstance: {fileID: 0}
  m_PrefabAsset: {fileID: 0}
  m_GameObject: {fileID: 7845256722005709697}
  m_Enabled: 1
  m_Tiles:
  - first: {x: -1, y: -3, z: 0}
    second:
      serializedVersion: 2
      m_TileIndex: 16
      m_TileSpriteIndex: 16
      m_TileMatrixIndex: 0
      m_TileColorIndex: 0
      m_TileObjectToInstantiateIndex: 65535
      m_AllTileFlags: 1073741825
  - first: {x: 0, y: -3, z: 0}
    second:
      serializedVersion: 2
      m_TileIndex: 17
      m_TileSpriteIndex: 17
      m_TileMatrixIndex: 0
      m_TileColorIndex: 0
      m_TileObjectToInstantiateIndex: 65535
      m_AllTileFlags: 1073741825
  - first: {x: 1, y: -3, z: 0}
    second:
      serializedVersion: 2
      m_TileIndex: 18
      m_TileSpriteIndex: 18
      m_TileMatrixIndex: 0
      m_TileColorIndex: 0
      m_TileObjectToInstantiateIndex: 65535
      m_AllTileFlags: 1073741825
  - first: {x: 2, y: -3, z: 0}
    second:
      serializedVersion: 2
      m_TileIndex: 19
      m_TileSpriteIndex: 19
      m_TileMatrixIndex: 0
      m_TileColorIndex: 0
      m_TileObjectToInstantiateIndex: 65535
      m_AllTileFlags: 1073741825
  - first: {x: -1, y: -2, z: 0}
    second:
      serializedVersion: 2
      m_TileIndex: 12
      m_TileSpriteIndex: 12
      m_TileMatrixIndex: 0
      m_TileColorIndex: 0
      m_TileObjectToInstantiateIndex: 65535
      m_AllTileFlags: 1073741825
  - first: {x: 0, y: -2, z: 0}
    second:
      serializedVersion: 2
      m_TileIndex: 13
      m_TileSpriteIndex: 13
      m_TileMatrixIndex: 0
      m_TileColorIndex: 0
      m_TileObjectToInstantiateIndex: 65535
      m_AllTileFlags: 1073741825
  - first: {x: 1, y: -2, z: 0}
    second:
      serializedVersion: 2
      m_TileIndex: 14
      m_TileSpriteIndex: 14
      m_TileMatrixIndex: 0
      m_TileColorIndex: 0
      m_TileObjectToInstantiateIndex: 65535
      m_AllTileFlags: 1073741825
  - first: {x: 2, y: -2, z: 0}
    second:
      serializedVersion: 2
      m_TileIndex: 15
      m_TileSpriteIndex: 15
      m_TileMatrixIndex: 0
      m_TileColorIndex: 0
      m_TileObjectToInstantiateIndex: 65535
      m_AllTileFlags: 1073741825
  - first: {x: -1, y: -1, z: 0}
    second:
      serializedVersion: 2
      m_TileIndex: 6
      m_TileSpriteIndex: 6
      m_TileMatrixIndex: 0
      m_TileColorIndex: 0
      m_TileObjectToInstantiateIndex: 65535
      m_AllTileFlags: 1073741825
  - first: {x: 0, y: -1, z: 0}
    second:
      serializedVersion: 2
      m_TileIndex: 7
      m_TileSpriteIndex: 7
      m_TileMatrixIndex: 0
      m_TileColorIndex: 0
      m_TileObjectToInstantiateIndex: 65535
      m_AllTileFlags: 1073741825
  - first: {x: 1, y: -1, z: 0}
    second:
      serializedVersion: 2
      m_TileIndex: 8
      m_TileSpriteIndex: 8
      m_TileMatrixIndex: 0
      m_TileColorIndex: 0
      m_TileObjectToInstantiateIndex: 65535
      m_AllTileFlags: 1073741825
  - first: {x: 2, y: -1, z: 0}
    second:
      serializedVersion: 2
      m_TileIndex: 9
      m_TileSpriteIndex: 9
      m_TileMatrixIndex: 0
      m_TileColorIndex: 0
      m_TileObjectToInstantiateIndex: 65535
      m_AllTileFlags: 1073741825
  - first: {x: 3, y: -1, z: 0}
    second:
      serializedVersion: 2
      m_TileIndex: 10
      m_TileSpriteIndex: 10
      m_TileMatrixIndex: 0
      m_TileColorIndex: 0
      m_TileObjectToInstantiateIndex: 65535
      m_AllTileFlags: 1073741825
  - first: {x: 4, y: -1, z: 0}
    second:
      serializedVersion: 2
      m_TileIndex: 11
      m_TileSpriteIndex: 11
      m_TileMatrixIndex: 0
      m_TileColorIndex: 0
      m_TileObjectToInstantiateIndex: 65535
      m_AllTileFlags: 1073741825
  - first: {x: -1, y: 0, z: 0}
    second:
      serializedVersion: 2
      m_TileIndex: 0
      m_TileSpriteIndex: 0
      m_TileMatrixIndex: 0
      m_TileColorIndex: 0
      m_TileObjectToInstantiateIndex: 65535
      m_AllTileFlags: 1073741825
  - first: {x: 0, y: 0, z: 0}
    second:
      serializedVersion: 2
      m_TileIndex: 1
      m_TileSpriteIndex: 1
      m_TileMatrixIndex: 0
      m_TileColorIndex: 0
      m_TileObjectToInstantiateIndex: 65535
      m_AllTileFlags: 1073741825
  - first: {x: 1, y: 0, z: 0}
    second:
      serializedVersion: 2
      m_TileIndex: 2
      m_TileSpriteIndex: 2
      m_TileMatrixIndex: 0
      m_TileColorIndex: 0
      m_TileObjectToInstantiateIndex: 65535
      m_AllTileFlags: 1073741825
  - first: {x: 2, y: 0, z: 0}
    second:
      serializedVersion: 2
      m_TileIndex: 3
      m_TileSpriteIndex: 3
      m_TileMatrixIndex: 0
      m_TileColorIndex: 0
      m_TileObjectToInstantiateIndex: 65535
      m_AllTileFlags: 1073741825
  - first: {x: 3, y: 0, z: 0}
    second:
      serializedVersion: 2
      m_TileIndex: 4
      m_TileSpriteIndex: 4
      m_TileMatrixIndex: 0
      m_TileColorIndex: 0
      m_TileObjectToInstantiateIndex: 65535
      m_AllTileFlags: 1073741825
  - first: {x: 4, y: 0, z: 0}
    second:
      serializedVersion: 2
      m_TileIndex: 5
      m_TileSpriteIndex: 5
      m_TileMatrixIndex: 0
      m_TileColorIndex: 0
      m_TileObjectToInstantiateIndex: 65535
      m_AllTileFlags: 1073741825
  m_AnimatedTiles: {}
  m_TileAssetArray:
  - m_RefCount: 1
    m_Data: {fileID: 11400000, guid: 331f28d5d40745c4682cd09a140032ec, type: 2}
  - m_RefCount: 1
    m_Data: {fileID: 11400000, guid: a369e44e1b1a8604ca3a5b20db52f945, type: 2}
  - m_RefCount: 1
    m_Data: {fileID: 11400000, guid: fe904f50e27ec6b45b19fbc61cfe5c8c, type: 2}
  - m_RefCount: 1
    m_Data: {fileID: 11400000, guid: 86ad82ffcb6ff3c45a1bfae100d6833e, type: 2}
  - m_RefCount: 1
    m_Data: {fileID: 11400000, guid: ba0dbd836130e6e438c37b6892a82856, type: 2}
  - m_RefCount: 1
    m_Data: {fileID: 11400000, guid: fa139a4db03c2f949901467fc112634b, type: 2}
  - m_RefCount: 1
    m_Data: {fileID: 11400000, guid: ba07470494d57664486b5109752313af, type: 2}
  - m_RefCount: 1
    m_Data: {fileID: 11400000, guid: 97f8c06f1d4c4e44ca3fc7108c773f31, type: 2}
  - m_RefCount: 1
    m_Data: {fileID: 11400000, guid: 335512e16788878458ffcc7d9d9225cf, type: 2}
  - m_RefCount: 1
    m_Data: {fileID: 11400000, guid: 3305a8d2035f2254d92c6c0160c67056, type: 2}
  - m_RefCount: 1
    m_Data: {fileID: 11400000, guid: 72f9974d84f1b1f4eab4be2f10452a1a, type: 2}
  - m_RefCount: 1
    m_Data: {fileID: 11400000, guid: 19d7d8a35b0b64e40a0370d14c5462f8, type: 2}
  - m_RefCount: 1
    m_Data: {fileID: 11400000, guid: 2938c04d2b396a740a59fe1ed6c1ae3d, type: 2}
  - m_RefCount: 1
    m_Data: {fileID: 11400000, guid: 0607d18db11c0c540bc3929fa2f1558c, type: 2}
  - m_RefCount: 1
    m_Data: {fileID: 11400000, guid: 5e8c32553f529a943919ae320ad4462b, type: 2}
  - m_RefCount: 1
    m_Data: {fileID: 11400000, guid: 0398ab4940e138a4d8923dd080c5f62f, type: 2}
  - m_RefCount: 1
    m_Data: {fileID: 11400000, guid: 4d263900806a82947b213c6438210771, type: 2}
  - m_RefCount: 1
    m_Data: {fileID: 11400000, guid: 16b3d8c01c1d2a34d815ac7380592a74, type: 2}
  - m_RefCount: 1
    m_Data: {fileID: 11400000, guid: a74bc9332cab6e54384e25efe09371e6, type: 2}
  - m_RefCount: 1
    m_Data: {fileID: 11400000, guid: 523a85c5ba5bbfb4e91b4960f4ed9841, type: 2}
  m_TileSpriteArray:
  - m_RefCount: 1
    m_Data: {fileID: 6749021734072467437, guid: af632ebfb56ad9446aa1529621ea7376,
      type: 3}
  - m_RefCount: 1
    m_Data: {fileID: 8642398913843935063, guid: af632ebfb56ad9446aa1529621ea7376,
      type: 3}
  - m_RefCount: 1
    m_Data: {fileID: 5153085740555252369, guid: af632ebfb56ad9446aa1529621ea7376,
      type: 3}
  - m_RefCount: 1
    m_Data: {fileID: 3506986380498700404, guid: af632ebfb56ad9446aa1529621ea7376,
      type: 3}
  - m_RefCount: 1
    m_Data: {fileID: 4520818564521264015, guid: af632ebfb56ad9446aa1529621ea7376,
      type: 3}
  - m_RefCount: 1
    m_Data: {fileID: -3698322611157765762, guid: af632ebfb56ad9446aa1529621ea7376,
      type: 3}
  - m_RefCount: 1
    m_Data: {fileID: -8627331332488745026, guid: af632ebfb56ad9446aa1529621ea7376,
      type: 3}
  - m_RefCount: 1
    m_Data: {fileID: 781545331857277912, guid: af632ebfb56ad9446aa1529621ea7376, type: 3}
  - m_RefCount: 1
    m_Data: {fileID: 3613085613744257291, guid: af632ebfb56ad9446aa1529621ea7376,
      type: 3}
  - m_RefCount: 1
    m_Data: {fileID: -8607054527660595259, guid: af632ebfb56ad9446aa1529621ea7376,
      type: 3}
  - m_RefCount: 1
    m_Data: {fileID: -1895314877306655856, guid: af632ebfb56ad9446aa1529621ea7376,
      type: 3}
  - m_RefCount: 1
    m_Data: {fileID: 1403866065408993361, guid: af632ebfb56ad9446aa1529621ea7376,
      type: 3}
  - m_RefCount: 1
    m_Data: {fileID: -5567380464543663125, guid: af632ebfb56ad9446aa1529621ea7376,
      type: 3}
  - m_RefCount: 1
    m_Data: {fileID: 5922710447340702345, guid: af632ebfb56ad9446aa1529621ea7376,
      type: 3}
  - m_RefCount: 1
    m_Data: {fileID: 6618834375878097810, guid: af632ebfb56ad9446aa1529621ea7376,
      type: 3}
  - m_RefCount: 1
    m_Data: {fileID: -7466676082642788381, guid: af632ebfb56ad9446aa1529621ea7376,
      type: 3}
  - m_RefCount: 1
    m_Data: {fileID: -2843220939672008836, guid: af632ebfb56ad9446aa1529621ea7376,
      type: 3}
  - m_RefCount: 1
    m_Data: {fileID: 5619341125654069742, guid: af632ebfb56ad9446aa1529621ea7376,
      type: 3}
  - m_RefCount: 1
    m_Data: {fileID: -2022978824433390064, guid: af632ebfb56ad9446aa1529621ea7376,
      type: 3}
  - m_RefCount: 1
    m_Data: {fileID: -5749189404160962224, guid: af632ebfb56ad9446aa1529621ea7376,
      type: 3}
  m_TileMatrixArray:
  - m_RefCount: 20
    m_Data:
      e00: 1
      e01: 0
      e02: 0
      e03: 0
      e10: 0
      e11: 1
      e12: 0
      e13: 0
      e20: 0
      e21: 0
      e22: 1
      e23: 0
      e30: 0
      e31: 0
      e32: 0
      e33: 1
  m_TileColorArray:
  - m_RefCount: 20
    m_Data: {r: 1, g: 1, b: 1, a: 1}
  m_TileObjectToInstantiateArray: []
  m_AnimationFrameRate: 1
  m_Color: {r: 1, g: 1, b: 1, a: 1}
  m_Origin: {x: -1, y: -3, z: 0}
  m_Size: {x: 6, y: 4, z: 1}
  m_TileAnchor: {x: 0.5, y: 0.5, z: 0}
  m_TileOrientation: 0
  m_TileOrientationMatrix:
    e00: 1
    e01: 0
    e02: 0
    e03: 0
    e10: 0
    e11: 1
    e12: 0
    e13: 0
    e20: 0
    e21: 0
    e22: 1
    e23: 0
    e30: 0
    e31: 0
    e32: 0
    e33: 1
--- !u!483693784 &6264367592158224043
TilemapRenderer:
  m_ObjectHideFlags: 0
  m_CorrespondingSourceObject: {fileID: 0}
  m_PrefabInstance: {fileID: 0}
  m_PrefabAsset: {fileID: 0}
  m_GameObject: {fileID: 7845256722005709697}
  m_Enabled: 0
  m_CastShadows: 0
  m_ReceiveShadows: 0
  m_DynamicOccludee: 0
  m_MotionVectors: 1
  m_LightProbeUsage: 0
  m_ReflectionProbeUsage: 0
  m_RayTracingMode: 0
  m_RenderingLayerMask: 1
  m_RendererPriority: 0
  m_Materials:
  - {fileID: 10754, guid: 0000000000000000f000000000000000, type: 0}
  m_StaticBatchInfo:
    firstSubMesh: 0
    subMeshCount: 0
  m_StaticBatchRoot: {fileID: 0}
  m_ProbeAnchor: {fileID: 0}
  m_LightProbeVolumeOverride: {fileID: 0}
  m_ScaleInLightmap: 1
  m_ReceiveGI: 1
  m_PreserveUVs: 0
  m_IgnoreNormalsForChartDetection: 0
  m_ImportantGI: 0
  m_StitchLightmapSeams: 1
  m_SelectedEditorRenderState: 0
  m_MinimumChartSize: 4
  m_AutoUVMaxDistance: 0.5
  m_AutoUVMaxAngle: 89
  m_LightmapParameters: {fileID: 0}
  m_SortingLayerID: 0
  m_SortingLayer: 0
  m_SortingOrder: 0
  m_ChunkSize: {x: 32, y: 32, z: 32}
  m_ChunkCullingBounds: {x: 0, y: 0, z: 0}
  m_MaxChunkCount: 16
  m_MaxFrameAge: 16
  m_SortOrder: 0
  m_Mode: 0
  m_DetectChunkCullingBounds: 0
  m_MaskInteraction: 0
--- !u!114 &-7161448455309378167
MonoBehaviour:
  m_ObjectHideFlags: 0
  m_CorrespondingSourceObject: {fileID: 0}
  m_PrefabInstance: {fileID: 0}
  m_PrefabAsset: {fileID: 0}
  m_GameObject: {fileID: 0}
  m_Enabled: 1
  m_EditorHideFlags: 0
  m_Script: {fileID: 12395, guid: 0000000000000000e000000000000000, type: 0}
  m_Name: Palette Settings
  m_EditorClassIdentifier: 
  cellSizing: 0
